Homework8
…
#Loading in the csv file while setting the column names and types
bike_sharing <- read_csv("SeoulBikeData.csv", 
                         col_names = c("Date", "Rented_Bike_Count", "Hour",
                                       "Temperature", "Humidity", "Wind_Speed",
                                       "Visibility", "Dew_Point_Temperature",
                                       "Solar_Radiation", "Rainfall", "Snowfall",
                                       "Seasons", "Holiday", "Functioning_Day"),
                         col_types = c("cnnnnnnnnnnccc"),
                         skip = 1)
bike_sharing

# A tibble: 8,760 × 14
   Date       Rented_Bike_Count  Hour Temperature Humidity Wind_Speed Visibility
   <chr>                  <dbl> <dbl>       <dbl>    <dbl>      <dbl>      <dbl>
 1 01/12/2017               254     0        -5.2       37        2.2       2000
 2 01/12/2017               204     1        -5.5       38        0.8       2000
 3 01/12/2017               173     2        -6         39        1         2000
 4 01/12/2017               107     3        -6.2       40        0.9       2000
 5 01/12/2017                78     4        -6         36        2.3       2000
 6 01/12/2017               100     5        -6.4       37        1.5       2000
 7 01/12/2017               181     6        -6.6       35        1.3       2000
 8 01/12/2017               460     7        -7.4       38        0.9       2000
 9 01/12/2017               930     8        -7.6       37        1.1       2000
10 01/12/2017               490     9        -6.5       27        0.5       1928
# ℹ 8,750 more rows
# ℹ 7 more variables: Dew_Point_Temperature <dbl>, Solar_Radiation <dbl>,
#   Rainfall <dbl>, Snowfall <dbl>, Seasons <chr>, Holiday <chr>,
#   Functioning_Day <chr>
…
For categorical variables we can look at the values that they take on.

# Finds the count of the Date values
bike_sharing |>
  group_by(Date) |>
  summarize(count = n())

# A tibble: 365 × 2
   Date       count
   <chr>      <int>
 1 01/01/2018    24
 2 01/02/2018    24
 3 01/03/2018    24
 4 01/04/2018    24
 5 01/05/2018    24
 6 01/06/2018    24
 7 01/07/2018    24
 8 01/08/2018    24
 9 01/09/2018    24
10 01/10/2018    24
# ℹ 355 more rows
…
There’s far fewer holiday entries than non-Holiday, as well as far fewer non-functioning days than functioning ones.

The Date will be converted to a datetime variable, and the three categorical variables, Seasons, Holiday, and Functioning_Day will be converted to factors so they can be used in a model.

# Converting variables using mutate to store as the same name
bike_sharing <- bike_sharing |>
  mutate(Date = as.POSIXct(Date, format = "%d/%m/%Y"),
         Seasons = as.factor(Seasons),
         Holiday = as.factor(Holiday),
         Functioning_Day = as.factor(Functioning_Day))

bike_sharing

# A tibble: 8,760 × 14
   Date                Rented_Bike_Count  Hour Temperature Humidity Wind_Speed
   <dttm>                          <dbl> <dbl>       <dbl>    <dbl>      <dbl>
 1 2017-12-01 00:00:00               254     0        -5.2       37        2.2
 2 2017-12-01 00:00:00               204     1        -5.5       38        0.8
 3 2017-12-01 00:00:00               173     2        -6         39        1  
 4 2017-12-01 00:00:00               107     3        -6.2       40        0.9
 5 2017-12-01 00:00:00                78     4        -6         36        2.3
 6 2017-12-01 00:00:00               100     5        -6.4       37        1.5
 7 2017-12-01 00:00:00               181     6        -6.6       35        1.3
 8 2017-12-01 00:00:00               460     7        -7.4       38        0.9
 9 2017-12-01 00:00:00               930     8        -7.6       37        1.1
10 2017-12-01 00:00:00               490     9        -6.5       27        0.5
# ℹ 8,750 more rows
# ℹ 8 more variables: Visibility <dbl>, Dew_Point_Temperature <dbl>,
#   Solar_Radiation <dbl>, Rainfall <dbl>, Snowfall <dbl>, Seasons <fct>,
#   Holiday <fct>, Functioning_Day <fct>
…
Finally, for the Functioning Day variable no bikes were sold on non-functioning days. This means that future non-functioning days will most likely also have 0 bikes rented. Therefore, we will subset the data to only look on the days that were functioning.

# Subsetting the data for only Functioning Days, then removing variable
bike_sharing <- bike_sharing |>
  filter(Functioning_Day == "Yes") |>
  select(everything(), -Functioning_Day)

bike_sharing

# A tibble: 8,465 × 13
   Date                Rented_Bike_Count  Hour Temperature Humidity Wind_Speed
   <dttm>                          <dbl> <dbl>       <dbl>    <dbl>      <dbl>
 1 2017-12-01 00:00:00               254     0        -5.2       37        2.2
 2 2017-12-01 00:00:00               204     1        -5.5       38        0.8
 3 2017-12-01 00:00:00               173     2        -6         39        1  
 4 2017-12-01 00:00:00               107     3        -6.2       40        0.9
 5 2017-12-01 00:00:00                78     4        -6         36        2.3
 6 2017-12-01 00:00:00               100     5        -6.4       37        1.5
 7 2017-12-01 00:00:00               181     6        -6.6       35        1.3
 8 2017-12-01 00:00:00               460     7        -7.4       38        0.9
 9 2017-12-01 00:00:00               930     8        -7.6       37        1.1
10 2017-12-01 00:00:00               490     9        -6.5       27        0.5
# ℹ 8,455 more rows
# ℹ 7 more variables: Visibility <dbl>, Dew_Point_Temperature <dbl>,
#   Solar_Radiation <dbl>, Rainfall <dbl>, Snowfall <dbl>, Seasons <fct>,
#   Holiday <fct>

Next we will summarize the data across the hours so there is only one observation per day.

# Summarizing data to only have one observation per day
bike_sharing <- bike_sharing |>
  group_by(Date, Seasons, Holiday) |>
  summarize(across(c(Rented_Bike_Count, Rainfall, Snowfall), sum),
            across(c(Temperature, Humidity, Wind_Speed, Visibility,
                        Dew_Point_Temperature, Solar_Radiation), mean),
            .groups = "drop")

bike_sharing

# A tibble: 353 × 12
   Date                Seasons Holiday    Rented_Bike_Count Rainfall Snowfall
   <dttm>              <fct>   <fct>                  <dbl>    <dbl>    <dbl>
 1 2017-12-01 00:00:00 Winter  No Holiday              9539      0        0  
 2 2017-12-02 00:00:00 Winter  No Holiday              8523      0        0  
 3 2017-12-03 00:00:00 Winter  No Holiday              7222      4        0  
 4 2017-12-04 00:00:00 Winter  No Holiday              8729      0.1      0  
 5 2017-12-05 00:00:00 Winter  No Holiday              8307      0        0  
 6 2017-12-06 00:00:00 Winter  No Holiday              6669      1.3      8.6
 7 2017-12-07 00:00:00 Winter  No Holiday              8549      0       10.4
 8 2017-12-08 00:00:00 Winter  No Holiday              8032      0        0  
 9 2017-12-09 00:00:00 Winter  No Holiday              7233      0        0  
10 2017-12-10 00:00:00 Winter  No Holiday              3453      4.1     32.5
# ℹ 343 more rows
# ℹ 6 more variables: Temperature <dbl>, Humidity <dbl>, Wind_Speed <dbl>,
#   Visibility <dbl>, Dew_Point_Temperature <dbl>, Solar_Radiation <dbl>
…
For the third bike model that we’ve chosen, the RMSE on the test set was 2963.4.

Finally, we will get the final best model parameter estimates, standard errors, test statistics, and p-values.

# Get the final model coefficient table
bike_best |>
  extract_fit_parsnip() |>
  tidy()

# A tibble: 29 × 5
   term               estimate std.error statistic  p.value
   <chr>                 <dbl>     <dbl>     <dbl>    <dbl>
 1 (Intercept)          16062.     1652.     9.73  5.40e-19
 2 Rainfall_poly_1     -23217.     5887.    -3.94  1.06e- 4
 3 Rainfall_poly_2       7543.     3152.     2.39  1.75e- 2
 4 Snowfall_poly_1      -3928.     3287.    -1.20  2.33e- 1
 5 Snowfall_poly_2       -688.     3075.    -0.224 8.23e- 1
 6 Temperature_poly_1   32771.    65552.     0.500 6.18e- 1
 7 Temperature_poly_2  -17944.    17477.    -1.03  3.06e- 1
 8 Humidity_poly_1     -26564.    22915.    -1.16  2.48e- 1
 9 Humidity_poly_2      -5879.     6034.    -0.974 3.31e- 1
10 Wind_Speed_poly_1    -7101.     3430.    -2.07  3.95e- 2
# ℹ 19 more rows
